<?xml version="1.0" standalone="no"?>
<!DOCTYPE svg PUBLIC "-//W3C//DTD SVG 1.1//EN" "http://www.w3.org/Graphics/SVG/1.1/DTD/svg11.dtd" >
<svg xmlns="http://www.w3.org/2000/svg">
<metadata>Generated by IcoMoon</metadata>
<defs>
<font id="a-movie" horiz-adv-x="1024">
<font-face units-per-em="1024" ascent="960" descent="-64" />
<missing-glyph horiz-adv-x="1024" />
<glyph unicode="&#x20;" horiz-adv-x="512" d="" />
<glyph unicode="&#xe900;" glyph-name="slider-indicator" d="M1024 448c0-282.77-229.23-512-512-512s-512 229.23-512 512c0 282.77 229.23 512 512 512s512-229.23 512-512z" />
<glyph unicode="&#xe901;" glyph-name="slider-indicator-active" d="M708.923 448c0-108.757-88.166-196.923-196.923-196.923s-196.923 88.166-196.923 196.923c0 108.757 88.166 196.923 196.923 196.923s196.923-88.166 196.923-196.923zM512-24.615c-261.018 0-472.615 211.597-472.615 472.615s211.597 472.615 472.615 472.615c261.018 0 472.615-211.597 472.615-472.615s-211.597-472.615-472.615-472.615zM512-64c282.774 0 512 229.226 512 512 0 282.77-229.226 512-512 512-282.77 0-512-229.23-512-512 0-282.774 229.23-512 512-512z" />
<glyph unicode="&#xe902;" glyph-name="tab-indicator" horiz-adv-x="6394" d="M0 960h6393.756v-324.683h-6393.756v324.683zM3246.829-51.51l-821.922 693.071h1643.845l-821.922-693.071z" />
</font></defs></svg>